%YAML 1.1
%TAG !u! tag:unity3d.com,2011:
--- !u!74 &7400000
AnimationClip:
  m_ObjectHideFlags: 0
  m_CorrespondingSourceObject: {fileID: 0}
  m_PrefabInstance: {fileID: 0}
  m_PrefabAsset: {fileID: 0}
  m_Name: Attack3 Boss
  serializedVersion: 6
  m_Legacy: 0
  m_Compressed: 0
  m_UseHighQualityCurve: 1
  m_RotationCurves: []
  m_CompressedRotationCurves: []
  m_EulerCurves: []
  m_PositionCurves: []
  m_ScaleCurves: []
  m_FloatCurves: []
  m_PPtrCurves:
  - curve:
    - time: 0
      value: {fileID: 1963841574, guid: 36409e548d8bf4d68a74efb5dc2170d9, type: 3}
    - time: 0.083333336
      value: {fileID: -1692703230, guid: 36409e548d8bf4d68a74efb5dc2170d9, type: 3}
    - time: 0.16666667
      value: {fileID: 1984674335, guid: 36409e548d8bf4d68a74efb5dc2170d9, type: 3}
    - time: 0.25
      value: {fileID: -1097144616, guid: 36409e548d8bf4d68a74efb5dc2170d9, type: 3}
    - time: 0.33333334
      value: {fileID: 2030282533, guid: 36409e548d8bf4d68a74efb5dc2170d9, type: 3}
    - time: 0.41666666
      value: {fileID: -1117272885, guid: 36409e548d8bf4d68a74efb5dc2170d9, type: 3}
    - time: 0.5
      value: {fileID: 1611854235, guid: 36409e548d8bf4d68a74efb5dc2170d9, type: 3}
    - time: 0.5833333
      value: {fileID: -1964276396, guid: 36409e548d8bf4d68a74efb5dc2170d9, type: 3}
    - time: 0.6666667
      value: {fileID: 915524093, guid: 36409e548d8bf4d68a74efb5dc2170d9, type: 3}
    - time: 0.75
      value: {fileID: -1071172715, guid: 36409e548d8bf4d68a74efb5dc2170d9, type: 3}
    - time: 0.8333333
      value: {fileID: 282828659, guid: 36409e548d8bf4d68a74efb5dc2170d9, type: 3}
    - time: 0.9166667
      value: {fileID: 303627303, guid: 36409e548d8bf4d68a74efb5dc2170d9, type: 3}
    - time: 1
      value: {fileID: -176579664, guid: 36409e548d8bf4d68a74efb5dc2170d9, type: 3}
    - time: 1.0833334
      value: {fileID: -1111639947, guid: 36409e548d8bf4d68a74efb5dc2170d9, type: 3}
    - time: 1.1666666
      value: {fileID: -1092396903, guid: 36409e548d8bf4d68a74efb5dc2170d9, type: 3}
    - time: 1.25
      value: {fileID: 1141505870, guid: 36409e548d8bf4d68a74efb5dc2170d9, type: 3}
    - time: 1.3333334
      value: {fileID: -1505076956, guid: 36409e548d8bf4d68a74efb5dc2170d9, type: 3}
    attribute: m_Sprite
    path: 
    classID: 212
    script: {fileID: 0}
  m_SampleRate: 12
  m_WrapMode: 0
  m_Bounds:
    m_Center: {x: 0, y: 0, z: 0}
    m_Extent: {x: 0, y: 0, z: 0}
  m_ClipBindingConstant:
    genericBindings:
    - serializedVersion: 2
      path: 0
      attribute: 0
      script: {fileID: 0}
      typeID: 212
      customType: 23
      isPPtrCurve: 1
    pptrCurveMapping:
    - {fileID: 1963841574, guid: 36409e548d8bf4d68a74efb5dc2170d9, type: 3}
    - {fileID: -1692703230, guid: 36409e548d8bf4d68a74efb5dc2170d9, type: 3}
    - {fileID: 1984674335, guid: 36409e548d8bf4d68a74efb5dc2170d9, type: 3}
    - {fileID: -1097144616, guid: 36409e548d8bf4d68a74efb5dc2170d9, type: 3}
    - {fileID: 2030282533, guid: 36409e548d8bf4d68a74efb5dc2170d9, type: 3}
    - {fileID: -1117272885, guid: 36409e548d8bf4d68a74efb5dc2170d9, type: 3}
    - {fileID: 1611854235, guid: 36409e548d8bf4d68a74efb5dc2170d9, type: 3}
    - {fileID: -1964276396, guid: 36409e548d8bf4d68a74efb5dc2170d9, type: 3}
    - {fileID: 915524093, guid: 36409e548d8bf4d68a74efb5dc2170d9, type: 3}
    - {fileID: -1071172715, guid: 36409e548d8bf4d68a74efb5dc2170d9, type: 3}
    - {fileID: 282828659, guid: 36409e548d8bf4d68a74efb5dc2170d9, type: 3}
    - {fileID: 303627303, guid: 36409e548d8bf4d68a74efb5dc2170d9, type: 3}
    - {fileID: -176579664, guid: 36409e548d8bf4d68a74efb5dc2170d9, type: 3}
    - {fileID: -1111639947, guid: 36409e548d8bf4d68a74efb5dc2170d9, type: 3}
    - {fileID: -1092396903, guid: 36409e548d8bf4d68a74efb5dc2170d9, type: 3}
    - {fileID: 1141505870, guid: 36409e548d8bf4d68a74efb5dc2170d9, type: 3}
    - {fileID: -1505076956, guid: 36409e548d8bf4d68a74efb5dc2170d9, type: 3}
  m_AnimationClipSettings:
    serializedVersion: 2
    m_AdditiveReferencePoseClip: {fileID: 0}
    m_AdditiveReferencePoseTime: 0
    m_StartTime: 0
    m_StopTime: 1.4166667
    m_OrientationOffsetY: 0
    m_Level: 0
    m_CycleOffset: 0
    m_HasAdditiveReferencePose: 0
    m_LoopTime: 1
    m_LoopBlend: 0
    m_LoopBlendOrientation: 0
    m_LoopBlendPositionY: 0
    m_LoopBlendPositionXZ: 0
    m_KeepOriginalOrientation: 0
    m_KeepOriginalPositionY: 1
    m_KeepOriginalPositionXZ: 0
    m_HeightFromFeet: 0
    m_Mirror: 0
  m_EditorCurves: []
  m_EulerEditorCurves: []
  m_HasGenericRootTransform: 0
  m_HasMotionFloatCurves: 0
  m_Events:
  - time: 0.9166667
    functionName: Attack3
    data: 
    objectReferenceParameter: {fileID: 0}
    floatParameter: 0
    intParameter: 0
    messageOptions: 0
